{
  "page": 1,
  "limit": 10,
  "explicit": false,
  "total": 1000,
  "has_more": true,
  "list": [
    {
      "thumbnail_url": "https://s1.dmcdn.net/v/UTNPc1ZbXPYiZKalh",
      "views_total": 0,
      "title": "PROCRASTINATION Best Motivational Video",
      "description": "Introducing the PROCRASTINATION Best Motivational Video - a video that will inspire you to reach your full potential in life!<br /><br />The video is filled with inspiring anecdotes that will help you attain your goals in life.<br /><br />It also includes tips and tricks that will make your day-to-day life easier and faster. So what are you waiting for? Get started today!",
      "duration": 265,
      "embed_url": "https://www.dailymotion.com/embed/video/x8g8tba",
      "id": "x8g8tba"
    },
    {
      "thumbnail_url": "https://s2.dmcdn.net/v/UTNU81ZbXPgK0UGW5",
      "views_total": 0,
      "title": "Miss France 2023 : Chiara Fontaine, Miss Roussillon 2022, dévoile le trucage utilisé dans son portra",
      "description": "Actu Star: Merci beaucoup d'avoir regardé!<br />Si vous souhaitez plus de nouvelles, abonnez-vous à la chaîne!<br />CLIQUEZ ICI POUR INSCRIRE: https://goo.gl/c9M5jU<br /><br />Miss France 2023 : Chiara Fontaine, Miss Roussillon 2022, dévoile le trucage utilisé dans son portrait <br /><br />Musique est protégé des droits d'auteur par: https://www.ntmediastudio.com/<br />Musique de fond utilisée dans vidéo de cette chaîne: https://www.youtube.com/channel/UCIZ8_Xpxgn_lONAp32IEJqA",
      "duration": 217,
      "embed_url": "https://www.dailymotion.com/embed/video/x8g8tjc",
      "id": "x8g8tjc"
    },
    {
      "thumbnail_url": "https://s2.dmcdn.net/v/UTNUA1ZbXPSTLOtsU",
      "views_total": 0,
      "title": "But de Team 2",
      "description": "",
      "duration": 31,
      "embed_url": "https://www.dailymotion.com/embed/video/x8g8tje",
      "id": "x8g8tje"
    },
    {
      "thumbnail_url": "https://s1.dmcdn.net/v/UTNSJ1ZbXPo8BpgsK",
      "views_total": 0,
      "title": "Deal or No Deal | Thursday 21st May 2015 | Episode 2774",
      "description": "",
      "duration": 2441,
      "embed_url": "https://www.dailymotion.com/embed/video/x8g8tg3",
      "id": "x8g8tg3"
    },
    {
      "thumbnail_url": "https://s1.dmcdn.net/v/UTNMo1ZbXPSSfS1aq",
      "views_total": 0,
      "title": "New Hindi Romantic Song",
      "description": "New Hindi Romantic Song<br /><br />Stat Connected us",
      "duration": 172,
      "embed_url": "https://www.dailymotion.com/embed/video/x8g8t6a",
      "id": "x8g8t6a"
    },
    {
      "thumbnail_url": "https://s1.dmcdn.net/v/UTNPa1ZbXP9i0Iyvw",
      "views_total": 0,
      "title": "PAIN IS TEMPORARY Motivational Speech",
      "description": "PAIN IS TEMPORARY Motivational Speech is a non-dramatic, conversational style of speech that helps you get traction on your goals and success.<br /><br />You'll hear how pain is temporary and will see examples of pain that you can use to help you reach your goals.<br /><br />Designed to help you get motivated, PAIN IS TEMPORARY Motivational Speech will help you change your life and your behavior.",
      "duration": 252,
      "embed_url": "https://www.dailymotion.com/embed/video/x8g8tb8",
      "id": "x8g8tb8"
    },
    {
      "thumbnail_url": "https://s2.dmcdn.net/v/UTNPg1ZbXPm5s2Dko",
      "views_total": 0,
      "title": "Nedjeljom u 2 - Đurđa Grozaj i Silvija Šesto (11. prosinca 2022.)",
      "description": "ALEKSANDRU STANKOVIĆU u 943. emisiji HTV-a 'Nedjeljom u 2' gošće su Đurđa Grozaj, koja nakon 39 godina radnog staža u tekstilnoj industriji ima 2500 kuna mirovine, i spisateljica Silvija Šesto, dobitnica više državnih nagrada za književnost s pet naslova u lektiri za osnovnu školu koja ima invalidsku mirovinu od 1190 kuna.",
      "duration": 3286,
      "embed_url": "https://www.dailymotion.com/embed/video/x8g8tbe",
      "id": "x8g8tbe"
    },
    {
      "thumbnail_url": "https://s2.dmcdn.net/v/UTNU71ZbXPMJhY29_",
      "views_total": 0,
      "title": "But de Team 1",
      "description": "",
      "duration": 31,
      "embed_url": "https://www.dailymotion.com/embed/video/x8g8tjb",
      "id": "x8g8tjb"
    },
    {
      "thumbnail_url": "https://s2.dmcdn.net/v/UTNPb1ZbXPuNPa1gk",
      "views_total": 0,
      "title": "Kuma's Bearhug On All Females Ryona | Tekken 7",
      "description": "Patreon: https://www.patreon.com/user?u=73072553<br /> <br />I Sometimes Maybe Might Do Requests So Do Or Don't <br /> <br />Thanks Gamers <br /><br />Tekken 7 ryona",
      "duration": 133,
      "embed_url": "https://www.dailymotion.com/embed/video/x8g8tb9",
      "id": "x8g8tb9"
    },
    {
      "thumbnail_url": "https://s2.dmcdn.net/v/UTNU71ZbXPMJhY29_",
      "views_total": 0,
      "title": "But de Team 1",
      "description": "",
      "duration": 31,
      "embed_url": "https://www.dailymotion.com/embed/video/x8g8tjb",
      "id": "x8g8tjb"
    }
  ]
}